lc = 0.005 ;
Point(1000) = { 1.00000000, 0.00000000, 0.00000000, lc};
 Point(1001) = { 0.93933333, 0.01736067, 0.00000000, lc};
 Point(1002) = { 0.87866667, 0.03195934, 0.00000000, lc};
 Point(1003) = { 0.81800000, 0.04515896, 0.00000000, lc};
 Point(1004) = { 0.75733333, 0.05700069, 0.00000000, lc};
 Point(1005) = { 0.69666667, 0.06749588, 0.00000000, lc};
 Point(1006) = { 0.63600000, 0.07663261, 0.00000000, lc};
 Point(1007) = { 0.57533333, 0.08436842, 0.00000000, lc};
 Point(1008) = { 0.51466667, 0.09063116, 0.00000000, lc};
 Point(1009) = { 0.45400000, 0.09531170, 0.00000000, lc};
 Point(1010) = { 0.39333333, 0.09824963, 0.00000000, lc};
 Point(1011) = { 0.33266667, 0.09865461, 0.00000000, lc};
 Point(1012) = { 0.27200000, 0.09590304, 0.00000000, lc};
 Point(1013) = { 0.21133333, 0.08958870, 0.00000000, lc};
 Point(1014) = { 0.15066667, 0.07902579, 0.00000000, lc};
 Point(1015) = { 0.09000000, 0.06282105, 0.00000000, lc};
 Point(1016) = { 0.08000000, 0.05941062, 0.00000000, lc};
 Point(1017) = { 0.07428571, 0.05734196, 0.00000000, lc};
 Point(1018) = { 0.06857143, 0.05517783, 0.00000000, lc};
 Point(1019) = { 0.06285714, 0.05290033, 0.00000000, lc};
 Point(1020) = { 0.05714286, 0.05050054, 0.00000000, lc};
 Point(1021) = { 0.05142857, 0.04796901, 0.00000000, lc};
 Point(1022) = { 0.04571429, 0.04528809, 0.00000000, lc};
 Point(1023) = { 0.04000000, 0.04243593, 0.00000000, lc};
 Point(1024) = { 0.03428571, 0.03938252, 0.00000000, lc};
 Point(1025) = { 0.02857143, 0.03604342, 0.00000000, lc};
 Point(1026) = { 0.02285714, 0.03237611, 0.00000000, lc};
 Point(1027) = { 0.01714286, 0.02826737, 0.00000000, lc};
 Point(1028) = { 0.01142857, 0.02350893, 0.00000000, lc};
 Point(1029) = { 0.00571429, 0.01741765, 0.00000000, lc};
 Point(1030) = { 0.00000000, 0.00000000, 0.00000000, lc};
 Point(1031) = { 0.00571429, -0.00944931, 0.00000000, lc};
 Point(1032) = { 0.01142857, -0.01369019, 0.00000000, lc};
 Point(1033) = { 0.01714286, -0.01650562, 0.00000000, lc};
 Point(1034) = { 0.02285714, -0.01871667, 0.00000000, lc};
 Point(1035) = { 0.02857143, -0.02047896, 0.00000000, lc};
 Point(1036) = { 0.03428571, -0.02192452, 0.00000000, lc};
 Point(1037) = { 0.04000000, -0.02313245, 0.00000000, lc};
 Point(1038) = { 0.04571429, -0.02415266, 0.00000000, lc};
 Point(1039) = { 0.05142857, -0.02501010, 0.00000000, lc};
 Point(1040) = { 0.05714286, -0.02574256, 0.00000000, lc};
 Point(1041) = { 0.06285714, -0.02636876, 0.00000000, lc};
 Point(1042) = { 0.06857143, -0.02690323, 0.00000000, lc};
 Point(1043) = { 0.07428571, -0.02735742, 0.00000000, lc};
 Point(1044) = { 0.08000000, -0.02774092, 0.00000000, lc};
 Point(1045) = { 0.09000000, -0.02826352, 0.00000000, lc};
 Point(1046) = { 0.15066667, -0.02877015, 0.00000000, lc};
 Point(1047) = { 0.21133333, -0.02685386, 0.00000000, lc};
 Point(1048) = { 0.27200000, -0.02399870, 0.00000000, lc};
 Point(1049) = { 0.33266667, -0.02098214, 0.00000000, lc};
 Point(1050) = { 0.39333333, -0.01829292, 0.00000000, lc};
 Point(1051) = { 0.45400000, -0.01589431, 0.00000000, lc};
 Point(1052) = { 0.51466667, -0.01338297, 0.00000000, lc};
 Point(1053) = { 0.57533333, -0.01091691, 0.00000000, lc};
 Point(1054) = { 0.63600000, -0.00862298, 0.00000000, lc};
 Point(1055) = { 0.69666667, -0.00658780, 0.00000000, lc};
 Point(1056) = { 0.75733333, -0.00486567, 0.00000000, lc};
 Point(1057) = { 0.81800000, -0.00348235, 0.00000000, lc};
 Point(1058) = { 0.87866667, -0.00243765, 0.00000000, lc};
 Point(1059) = { 0.93933333, -0.00170789, 0.00000000, lc};
 Point(1060) = { 1.00000000, 0.00000000, 0.00000000, lc};
 Spline(2000) = {1023:1030};
//Spline(2001) = {1000:1023,1023};
Spline(2001) = {1023,1022,1021,1020,1019,1018,1017,1016,1015,1014,1013,1012,1011,1010,1009,1008,1007,1006,1005,1004,1003,1002,1001,1060};
Spline(2002) = {1060,1059,1058,1057,1056,1055,1054,1053,1052,1051,1050,1049,1048,1047,1046,1045,1044,1043,1042,1041,1040,1039,1038};
Spline(2003) = {1038:1030};

edge_lc = 0.2;



Line Loop (2) = {1000};



// We need to extrude the surface so that the mesh is 3D for OpenFOAM
R = 20;
xAfterProfile = 20;
pointIntrados = 1040;
heightBoxAirfoil = 0.2;
angleWake = 75;
firstPointXBox = -0.15;
thetaLeftBoxUp = 70*3.14159/180;
thetaLeftBoxDown = 75*3.14159/180;
thetaRightBox = 75*3.14159/180;
xPoint1023 = 0.04;
yPoint1023 = 0.04243593;
xPoint1038 = 0.04571429;
yPoint1038 = -0.02415266;
// xPoint1023 = 0.12993000;
// yPoint1023 = 0.04961;
xBoxLeftUp = xPoint1023 - (heightBoxAirfoil-yPoint1023)*Cos(thetaLeftBoxUp)/Sin(thetaLeftBoxUp);
// xPoint1038 = 0.13407;
// yPoint1038 = -0.02809;
xBoxLeftDown = xPoint1038 - (heightBoxAirfoil+yPoint1038)*Cos(thetaLeftBoxDown)/Sin(thetaLeftBoxDown);
xBoxRight = 1.0+heightBoxAirfoil/Tan(thetaRightBox);
pi = 3.14159;
Point(100) = {firstPointXBox,0.0,0.0,1.0};
Point(101) = {xBoxLeftUp,heightBoxAirfoil,0.0,1.0};
Point(102) = {xBoxLeftDown,-heightBoxAirfoil,0.0,1.0};
Point(103) = {xBoxRight,heightBoxAirfoil,0.0,1.0};
Point(104) = {xBoxRight,-heightBoxAirfoil,0.0,1.0};

angleSpline = 70;
angleSpline2 = 30;
firstPointXBox = firstPointXBox*1.00;
Point(105) = {firstPointXBox*Cos(angleSpline*pi/180),-firstPointXBox*Sin(angleSpline*pi/180),0.0,1.0};
Point(106) = {firstPointXBox*Cos(angleSpline*pi/180),firstPointXBox*Sin(angleSpline*pi/180),0.0,1.0};
Point(107) = {firstPointXBox*Cos(angleSpline2*pi/180),-firstPointXBox*Sin(angleSpline2*pi/180),0.0,1.0};
Point(108) = {firstPointXBox*Cos(angleSpline2*pi/180),firstPointXBox*Sin(angleSpline2*pi/180),0.0,1.0};
Line(1) = {1038,102};
Line(2) = {1023,101};
Line(3) = {1030,100};

Line(1001) = {101, 103};
Line(1002) = {1060, 103};
Line(1003) = {1060, 104};
Line(1004) = {104, 102};

afterWakeAngle = 5*pi/180;

Point(109) = {xAfterProfile, heightBoxAirfoil+xAfterProfile*Tan(afterWakeAngle),0.0,1.0};
Point(110) = {xAfterProfile, -heightBoxAirfoil-xAfterProfile*Tan(afterWakeAngle),0.0,1.0};
Point(111) = {-R,0.0,0.0,1.0};
Point(112) = {-R*Cos(thetaLeftBoxUp),R*Sin(thetaLeftBoxUp),0.0,1.0};
Point(113) = {-R*Cos(thetaLeftBoxDown),-R*Sin(thetaLeftBoxDown),0.0,1.0};
Point(114) = {xAfterProfile,R*Sin(thetaLeftBoxUp),0.0,1.0};
Point(115) = {xAfterProfile,-R*Sin(thetaLeftBoxDown),0.0,1.0};

angleSpline = 20;
angleSpline2 = 45;
Point(116) = {-R*Cos(angleSpline2*pi/180),R*Sin(angleSpline2*pi/180),0.0,1.0};
Point(117) = {-R*Cos(angleSpline2*pi/180),-R*Sin(angleSpline2*pi/180),0.0,1.0};

Point(118) = {-R*Cos(angleSpline*pi/180),R*Sin(angleSpline*pi/180),0.0,1.0};
Point(119) = {-R*Cos(angleSpline*pi/180),-R*Sin(angleSpline*pi/180),0.0,1.0};

Point(120) = {xAfterProfile,0.0,0.0,1.0};
Point(121) = {1.0+R*Sin(thetaLeftBoxUp)/Tan(thetaRightBox),R*Sin(thetaLeftBoxUp),0.0,1.0};
Point(122) = {1.0+R*Sin(thetaLeftBoxDown)/Tan(thetaRightBox),-R*Sin(thetaLeftBoxDown),0.0,1.0};

BSpline(1007) = {102,106,108,100};
BSpline(1022) = {100,107,105,101};


Line(1008) = {101, 112};
Line(1010) = {114, 109};
Line(1011) = {109, 103};
Line(1013) = {104, 110};
Line(1014) = {110, 115};

Spline(3016) = {112, 116, 118, 111};
Spline(3017) = {111, 119, 117, 113};
Line(1017) = {102, 113};
Line(1018) = {111, 100};
Line(1019) = {1060, 120};
Line(1020) = {104, 122};
Line(1021) = {103, 121};

Line Loop(2003) = {2002, 1, -1004, -1003};
Plane Surface(2004) = {2003};
Line(2005) = {109, 120};
Line(2006) = {110, 120};
Line Loop(2007) = {1011, -1002, 1019, -2005};
Plane Surface(2008) = {2007};
Line Loop(2009) = {1019, -2006, -1013, -1003};
Plane Surface(2010) = {2009};
Line Loop(2011) = {2001, 1002, -1001, -2};
Plane Surface(2012) = {2011};
Line Loop(2013) = {2, -1022, -3, -2000};
Plane Surface(2014) = {2013};
Line Loop(2015) = {3, -1007, -1, 2003};
Plane Surface(2016) = {2015};
Line(2017) = {112, 121};
Line(2018) = {121, 114};
Line Loop(2019) = {2017, -1021, -1001, 1008};
Plane Surface(2020) = {2019};
Line Loop(2021) = {2018, 1010, 1011, 1021};
Plane Surface(2022) = {2021};
Line(2023) = {113, 122};
Line(2024) = {122, 115};
Line Loop(2025) = {1004, 1017, 2023, -1020};
Plane Surface(2026) = {2025};
Line Loop(2027) = {1013, 1014, -2024, -1020};
Plane Surface(2028) = {2027};
Line Loop(3018) = {3016, 1018, 1022, 1008};
Plane Surface(3019) = {3018};
Line Loop(3020) = {1007, -1018, 3017, -1017};
Plane Surface(3021) = {3020};



// Divisions in the mesh

XTopDiv = 70;
XBottomDiv = 70;
YAirfoilBlockDiv = 124;
YAirfoilBlockGrading = 1.05;
YBigBlockGrading = 1.05;
XGradingTop = 1.02;
YBigBlockDiv = 96;
XBottomLEDiv = 60;
XTopLEDiv = 60;
XWakeDiv = 100;
XWakeGrading = 1.05;
BumpAirfoil = 4;
Transfinite Line{2,1002} = YAirfoilBlockDiv Using Progression YAirfoilBlockGrading;
Transfinite Line{1,1003} = YAirfoilBlockDiv Using Progression YAirfoilBlockGrading;
Transfinite Line{3,2} = YAirfoilBlockDiv Using Progression YAirfoilBlockGrading;
Transfinite Line{3,1} = YAirfoilBlockDiv Using Progression YAirfoilBlockGrading;
Transfinite Line{2003,1007} = XBottomLEDiv;
Transfinite Line{1007,3017} = XBottomLEDiv;
Transfinite Line{2000,1022} = XTopLEDiv;
Transfinite Line{1022,3016} = XTopLEDiv;
Transfinite Line{1001,2017} = XTopDiv Using Bump 1/BumpAirfoil;
Transfinite Line{1001,2001} = XTopDiv Using Bump 1/BumpAirfoil;
Transfinite Line{2002,1004} = XBottomDiv Using Bump 1/BumpAirfoil;
Transfinite Line{1004,2023} = XBottomDiv Using Bump 1/BumpAirfoil;

Transfinite Line{1014} = YBigBlockDiv Using Progression YBigBlockGrading;
Transfinite Line{1020} = YBigBlockDiv Using Progression YBigBlockGrading;
Transfinite Line{1020,1017} = YBigBlockDiv Using Progression YBigBlockGrading;
Transfinite Line{1017,1018} = YBigBlockDiv Using Progression YBigBlockGrading;
Transfinite Line{1018} = YBigBlockDiv Using Progression 1/YBigBlockGrading;
Transfinite Line{1008} = YBigBlockDiv Using Progression YBigBlockGrading;
Transfinite Line{1021} = YBigBlockDiv Using Progression YBigBlockGrading;
Transfinite Line{1021} = YBigBlockDiv Using Progression YBigBlockGrading;
Transfinite Line{1010} = YBigBlockDiv Using Progression 1/YBigBlockGrading;
Transfinite Line{2024} = XWakeDiv Using Progression XWakeGrading;
Transfinite Line{1013} = XWakeDiv Using Progression XWakeGrading;
Transfinite Line{1019} = XWakeDiv Using Progression XWakeGrading;
Transfinite Line{1011} = XWakeDiv Using Progression 1/XWakeGrading;
Transfinite Line{2018} = XWakeDiv Using Progression XWakeGrading;
Transfinite Line{1002} = YAirfoilBlockDiv Using Progression YAirfoilBlockGrading;
Transfinite Line{2005} = YAirfoilBlockDiv Using Progression 1/YAirfoilBlockGrading;
Transfinite Line{1003} = YAirfoilBlockDiv Using Progression YAirfoilBlockGrading;
Transfinite Line{2006} = YAirfoilBlockDiv Using Progression 1/YAirfoilBlockGrading;


Transfinite Surface {2004,2008,2010,2012,2014,2016,2020,2022,2026,2028,3019,3021};
Recombine Surface{2004,2008,2010,2012,2014,2016,2020,2022,2026,2028,3019,3021};

Extrude {0, 0, -1} {
  Surface{2004,2008,2010,2012,2014,2016,2020,2022,2026,2028,3019,3021};
  Layers{1};
  Recombine;
}



Physical Volume("fluid") = {1,2,3,4,5,6,7,8,9,10,11,12};

Physical Surface("inlet") = {3250,3280};
Physical Surface("top") = {3184,3162};
Physical Surface("bottom") = {3214,3236};
Physical Surface("outlet") = { 3232,3078,3064,3188};
Physical Surface("airfoilWall") = { 3096,3130,3152,3030};
Physical Surface("back") = { 2022,2020,3019,3021,2026,2028,2010,2008,2012,2014,2016,2004};
Physical Surface("front") = { 3197,3175,3263,3285,3219,3241,3087,3065,3109,3131,3153,3043};



